{
  "name": {
      "value": "",
      "state": "None",
      "stateText": "",
      "visible": true,
      "editable": false,
      "required": true
  },
    "records": [],
    "selectedRecordPath": "",
    "create": false,
  	"modify": true,
  	"delete": true,
  	"save": true,
  	"cancel": true,
  "weight": {
      "value": "",
      "state": "None",
      "stateText": "",
      "visible": true,
      "editable": true,
      "required": true
  },
  "days_eviction": {
      "value": "",
      "state": "None",
      "stateText": "",
      "visible": true,
      "editable": false,
      "required": true
  },
  "code" : {
      "value" : "",
      "state": "None",
      "stateText": "",
      "visible": true,
      "editable": false,
      "required": true
  }
}
