{
    "partnership_id":{
        "value":""
    },
    "name": {
        "value": "",
        "state": "None",
        "stateText": "",
        "visible": true,
        "editable": false,
        "required": true
    },
    "code": {
        "value": "",
        "state": "None",
        "stateText": "",
        "visible": true,
        "editable": false,
        "required": true
    },
    "address": {
        "value": "",
        "state": "None",
        "stateText": "",
        "visible": true,
        "editable": false,
        "required": false
    },
    "description": {
        "value": "",
        "state": "None",
        "stateText": "",
        "visible": true,
        "editable": false,
        "required": false
    },
    "disable": {
		"value": "",
		"state": "None",
		"stateText": "",
		"required": false,
		"editable": false
	},
    "records": [],
    "settings": {
      "enabledTab": false,
      "tableMode": "None"
    },
    "selectedRecordPath": "",
    "create": false,
  	"modify": true,
  	"delete": true,
  	"save": true,
  	"cancel": true
}
