{
	"code": {
		"value": "",
		"state": "None",
		"stateText": "",
		"editable": false
	},
	"name": {
		"value": "",
		"state": "None",
		"stateText": "",
		"editable": false
	},
	"records": [],
	"settings": {
		"enabledTab": false,
		"tableMode": "None"
	},
	"selectedRecordPath": "",
	"create": false,
	"modify": true,
	"delete": true,
	"save": true,
	"cancel": true
}
