{
	"postureRecords":[],
	"selectDay":[],
    "newRecords": [],
    "curves": [],
    "breedRecords": [],
    "breed_id": {
        "value": 1,
        "state": "None",
        "stateText": "",
        "visible": true,
        "editable": false,
        "required": true
    },
    "selectedRecordPath": "",
    "days": [
  		{"key": "1", "day": "1", "enabled": true},
  		{"key": "2", "day": "2", "enabled": true},
  		{"key": "3", "day": "3", "enabled": true},
  		{"key": "4", "day": "4", "enabled": true},
  		{"key": "5", "day": "5", "enabled": true},
  		{"key": "6", "day": "6", "enabled": true},
  		{"key": "7", "day": "7", "enabled": true},
  		{"key": "8", "day": "8", "enabled": true},
  		{"key": "9", "day": "9", "enabled": true},
  		{"key": "10", "day": "10", "enabled": true},
  		{"key": "11", "day": "11", "enabled": true},
  		{"key": "12", "day": "12", "enabled": true},
  		{"key": "13", "day": "13", "enabled": true},
  		{"key": "14", "day": "14", "enabled": true},
  		{"key": "15", "day": "15", "enabled": true},
  		{"key": "16", "day": "16", "enabled": true},
  		{"key": "17", "day": "17", "enabled": true},
  		{"key": "18", "day": "18", "enabled": true},
  		{"key": "19", "day": "19", "enabled": true},
  		{"key": "20", "day": "20", "enabled": true},
  		{"key": "21", "day": "21", "enabled": true},
  		{"key": "22", "day": "22", "enabled": true},
  		{"key": "23", "day": "23", "enabled": true},
  		{"key": "24", "day": "24", "enabled": true},
  		{"key": "25", "day": "25", "enabled": true},
  		{"key": "26", "day": "26", "enabled": true},
  		{"key": "27", "day": "27", "enabled": true},
  		{"key": "28", "day": "28", "enabled": true},
  		{"key": "29", "day": "29", "enabled": true},
  		{"key": "30", "day": "30", "enabled": true},
  		{"key": "31", "day": "31", "enabled": true},
      {"key": "32", "day": "32", "enabled": true},
      {"key": "33", "day": "33", "enabled": true},
      {"key": "34", "day": "34", "enabled": true},
      {"key": "35", "day": "35", "enabled": true},
      {"key": "36", "day": "36", "enabled": true},
      {"key": "37", "day": "37", "enabled": true},
      {"key": "38", "day": "38", "enabled": true},
      {"key": "39", "day": "39", "enabled": true},
      {"key": "40", "day": "40", "enabled": true},
      {"key": "41", "day": "41", "enabled": true},
      {"key": "42", "day": "42", "enabled": true}
  	],
    "settings": {
  		"enabledTab": false,
  		"tableMode": "None"
  	},
    "create": true,
  	"modify": true,
  	"delete": true,
  	"save": true,
  	"cancel": true
}
