{
	"CLIENTID": "",
	"userId": "",
	"phone": false,
	"busy": true,
	"entities": [
	{
		"name": "mdmeasure",
		"displayName": "Unidad de Medida"
	},
	{
		"name": "mdproduct",
		"displayName": "Producto"
	},
	{
		"name":"mdbroilerProduct",
		"displayName": "Producto de Engorde"
	},
	{
		"name": "mdbreed",
		"displayName": "Raza"
	},
	{
		"name": "mdprocess",
		"displayName": "Proceso"
	},
	{
		"name": "mdparameter",
		"displayName": "Parámetro"
	},
	{
		"name": "ospartnership",
		"displayName": "Empresa"
	},
	{
		"name": "osfarm",
		"displayName": "Granja"
	},
	{
		"name": "oscenter",
		"displayName": "Núcleo"
	},
	{
		"name": "osshed",
		"displayName": "Galpón"
	},
	{
		"name":"txposturecurve",
		"displayName": "Curva de Postura"
	},
	{
		"name":"osIncubatorPlant",
		"displayName": "Planta Incubadora"
	},
	{
		"name":"osIncubator",
		"displayName": "Máquinas de Incubación"
	},
	{
		"name":"osslaughterhouse",
		"displayName": "Planta de Beneficio"
	},
	{
		"name":"restrainingOrder",
		"displayName": "Orden de Alojamiento"
	}
	],
	"serviceUrl" : "",
	"clientID": 1,
	"delete": {
		"message": ""
	},
	"selectedEntity": "",
	"serviceError": {
		"status": "",
		"statusText": ""
	},
	"error": {
		"status": "",
		"statusText": ""
	},
	"title": "",
	"noDataText": ""
}
