{
  "compareButton": {
    "text": "Comparar",
    "type": "Emphasized"
  },
  "calculateButton": {
    "text": "Calcular",
    "type": "Emphasized",
    "visible": false
  },
  "listType": "SingleSelectMaster",
  "scenarios": [],
  "idSelected": "",
  "dates": [],
  "selectedDates": [],
  "scenariosAndDates": [],
  "stats": [],
  "popOverData": {
    "scenarioName": "",
    "criaYLevante": "",
    "engorde": ""
  },
  "columns": {"columnName1": "Macroelementos", "visible1": false, "columnName2": "Escenario1", "visible2": false, "columnName3": "Escenario2", "visible3": false, "columnName4": "Escenario3", "visible4": false, "columnName5": "Escenario4", "visible5": false},
  "items": [
    {
      "key": 1,
      "text": "Prueba 1"
    },
    {
      "key": 2,
      "text": "Prueba 2"
    },
    {
      "key": 3,
      "text": "Prueba 3"
    },
    {
      "key": 4,
      "text": "Prueba 4"
    }
  ],
  "selectedItem": {},
  "tableInfo": ""
}