{
    "entry":{
        "records": [],
        "selectRecord":{},
        "objectSearch":{},
        "viewEntrySave": false,
        "entryNew":false
    },
    "egress":{
        "records": [],
        "objectSearch":{},
        "selectRecord":{},
        "egressBalance":0,
        "viewEgressDate": false,
        "egressNew": false
    },
    "adjustment":[{
        "name": "Plexus"
    }],
    "new":[{
        "name": "Compra"
    }],
    "origin":[{
        "name": "Curva de postura"
    },
    {
        "name": "Compra"
    }],
    "EgressOpts":[{
        "name": "Descarte"
    },
    {
        "name": "Venta"
    }],
    "curva":true,
    "compra":false,
    "name": {
        "state": "None",
        "stateText": ""
    },
    "confirmBtn": false
}