{
	"name": {
		"value": "",
		"state": "None",
		"stateText": "",
		"required": false,
		"editable": false
	},
	"stall_height": {
		"value": "",
		"state": "None",
		"stateText": "",
		"required": false,
		"editable": false
	},
	"stall_width": {
		"value": "",
		"state": "None",
		"stateText": "",
		"required": false,
		"editable": false
	},
	"capmin": {
		"value": "0",
		"state": "None",
		"stateText": "",
		"required": false,
		"editable": false
	},
	"capmax": {
		"value": "0",
		"state": "None",
		"stateText": "",
		"required": false,
		"editable": false
	},
	"status": {
		"value": "0",
		"state": "None",
		"stateText": "",
		"required": false,
		"editable": false
	},
	"rotation_days": {
		"value": "",
		"state": "None",
		"stateText": "",
		"required": false,
		"editable": false,
		"visible": false
	},
	"quantity_nests": {
		"value": "",
		"state": "None",
		"stateText": "",
		"required": false,
		"editable": false,
		"visible": false
	},
	"quantity_cages": {
		"value": "",
		"state": "None",
		"stateText": "",
		"required": false,
		"editable": false,
		"visible": false
	},
	"statusRecords": [],
	"environmentRecords": [ {
		"value": "54",
		"name": "Controlado"
	}, {
		"value": "55",
		"name": "Semi-Controlado"
	}, {
		"value": "56",
		"name": "No Controlado"
	}],
	"environment": {
		"value": "0",
		"state": "None",
		"stateText": "",
		"required": false,
		"editable": false
	},
		"capacity": {
		"MIN": "",
		"MAX": ""
	},
	"records0": [],
	"records": [],
	"records1": [],
	"records2": [],
	"records3": [],
	"records4": [],
	"records5": [],
	"records6": [],
	"records7": [],
	"records8": [],
	"records9": [],
	"week": [],
	"old": [],
	"things":{
		
		"code" :"",
		"name" :"",
		"type" : "",
		"sheds": []
	},
	"settings": {
		"enabledTab": false,
		"tableMode": "None"
	},
	"settings2": {
		"enabledTab": false,
		"tableMode": "None"
	},
	"selectedRecordPath": "",
	"create": false,
	"modify": true,
	"delete": true,
	"save": true,
	"cancel": true,
	
	"farmSaveOrdenButt":false,
	"farmModOrdenButt": false,
	"farmCancelOrdenButt":false,

	"centerSaveOrdenButt":false,
	"centerModOrdenButt": false,
	"centerCancelOrdenButt":false,

	"shedSaveOrdenButt":false,
	"shedModOrdenButt": false,
	"shedCancelOrdenButt":false
	
}
